DoAnDMining_final
…
Vì các biến này đều là biến số và giá trị trung bình của một số biến
có chênh lêch khá lớn nên chúng ta sẽ thực hiện scale các biến này để
giảm sự chênh lệch, và tránh việc mô hình phụ thuộc quá vào 1 số biến
khi giá trị nó quá lớn.

# Logistic regression
set.seed(1)

datatrain <- datatrain_lr %>% mutate_at(c("ph", "Solids","Sulfate","Chloramines","Hardness"), ~(scale(.)))
datatrain

## # A tibble: 1,594 x 10
## # Groups:   Potability [2]
##      ph[,1] Hardness[,1] Solids[,1] Chloramines[,1] Sulfate[,1] Conductivity
##       <dbl>        <dbl>      <dbl>           <dbl>       <dbl>        <dbl>
##  1  0.0285         0.330    -0.0571           0.123     1.74            564.
##  2  0.988          1.09     -0.176            1.56     -0.00746         419.
##  3 -1.39          -0.321     1.02             0.300    -0.414           280.
##  4  1.50           0.270    -1.02            -1.86     -1.62            475.
##  5  0.870          0.872    -0.330            0.711    -0.00746         364.
##  6  0.0285        -1.82      0.825           -0.212    -1.82            380.
##  7  0.417          0.348     0.968           -1.49     -0.00746         445.
##  8 -0.670         -0.383     2.68             1.81      1.54            517.
##  9 -0.00328        0.572     1.32             2.15     -0.00746         315.
## 10  0.0285         1.21      0.147            2.32     -0.00746         555.
## # ... with 1,584 more rows, and 4 more variables: Organic_carbon <dbl>,
## #   Trihalomethanes <dbl>, Turbidity <dbl>, Potability <fct>
…
